<svg width="24" height="24" viewBox="0 0 24 24" fill="none" xmlns="http://www.w3.org/2000/svg">
<path d="M14.9156 10.1859L13.8141 9.08435L6.55808 16.3404V17.4419H7.65965L14.9156 10.1859ZM16.0172 9.08435L17.1188 7.98279L16.0172 6.88122L14.9156 7.98279L16.0172 9.08435ZM8.3047 19H5V15.6945L15.4664 5.22809C15.6125 5.08205 15.8106 5 16.0172 5C16.2238 5 16.4219 5.08205 16.568 5.22809L18.7719 7.432C18.918 7.5781 19 7.77621 19 7.98279C19 8.18936 18.918 8.38748 18.7719 8.53357L8.30548 19H8.3047Z" fill="#777777"/>
</svg>
